…
    1     2     3 
15676   234     3 
[1] "There are 475999 tests with matching vaccine and demographic info at primary enrolled schools  at schools with more than 10 tests and with some students of both vaccination statuses among chidren between the ages of 5 and 11 and who identify with a binary gender and reported tests at only 1 school"
[1] "There are 15676 students with tests with matching vaccine and demographic info at primary enrolled schools  at schools with more than 10 tests and with some students of both vaccination statuses among chidren between the ages of 5 and 11 and who identify with a binary gender and reported tests at only 1 school"

  1   2   3   4   5   6   7   8   9  10  11  12  13  14  15  16  17  18  19  20 
211 224 290 420 273 108  88 116 115 176 246 296 280 125 116 108 115 124 141 162 
 21  22  23  24  25  26  27  28  29  30  31  32  33  34  35  36  37  38  39  40 
157 175 216 205 250 283 296 366 373 409 406 370 350 394 430 393 422 459 518 607 
 41  42  43  44  45  46  47  48  49  50  51  52  53  54  55  56 
703 800 873 831 711 470 261  83  31  22  23  11  19   6  13   6 
[1] "There are 475340 tests with matching vaccine and demographic info at primary enrolled schools  at schools with more than 10 tests and with some students of both vaccination statuses among chidren between the ages of 5 and 11 and who identify with a binary gender and reported tests at only 1 school and reported at least 3 tests"
[1] "There are 15241 students with tests with matching vaccine and demographic info at primary enrolled schools  at schools with more than 10 tests and with some students of both vaccination statuses among chidren between the ages of 5 and 11 and who identify with a binary gender and reported tests at only 1 school and reported at least 3 tests"
# A tibble: 35 × 2
    week num_tests
   <dbl>     <dbl>
 1     1      6758
 2     2      9113
 3     3      9385
 4     4      9313
 5     5      5179
 6     6      7856
 7     7     10180
 8     8     10218
 9     9      5970
10    10     10378
# ℹ 25 more rows
# A tibble: 34 × 2
    week num_tests
   <dbl>     <dbl>
 1     1      6758
 2     2      9113
 3     3      9385
 4     4      9313
 5     5      5179
 6     6      7856
 7     7     10180
 8     8     10218
 9     9      5970
10    10     10378
# ℹ 24 more rows
…
